<?php

use Illuminate\Database\Migrations\Migration;
use Illuminate\Database\Schema\Blueprint;

class Create$STUDLY_PLURAL$Table extends Migration {

    /**
     * Run the migrations.
     *
     * @return void
     */
    public function up()
    {
        $UP$
    }


    /**
     * Reverse the migrations.
     *
     * @return void
     */
    public function down()
    {
        $DOWN$
    }

}
